



* sendO_ . sendP_ . a_ .
   * ! b . arg
   * m

* recvO_ . recvP  . a  .
   * ! sendO  . sendO_ . sendP_ . sendP  . ! arg_ . h_
   * ! recvO_ . recvO  . recvP  . recvP_ . ! arg_ . h
   * k




# свешее имя канала h или h_ существует только в выражении k







